-------------------------------------------------------------------------------
Test set: br.pucrs.spring.tstdemo.TstdemoApplicationTests
-------------------------------------------------------------------------------
Tests run: 1, Failures: 0, Errors: 0, Skipped: 0, Time elapsed: 10.294 s - in br.pucrs.spring.tstdemo.TstdemoApplicationTests
